{
    "brem": {
        "mass": [
            1,
            5,
            10,
            20,
            30,
            40,
            50,
            60,
            63,
            70,
            80,
            90,
            100,
            120,
            150,
            180,
            200,
            500,
            700,
            1000,
            1500,
            2000
        ],
        "bremCut": [
            "0.400107",
            "0.572712",
            "0.591176",
            "0.590687",
            "0.590781",
            "0.57958",
            "0.580832",
            "0.582323",
            "0.580096",
            "0.581419",
            "0.577746",
            "0.57457",
            "0.574213",
            "0.574722",
            "0.574677",
            "0.571098",
            "0.56946",
            "0.562056",
            "0.54078",
            "0.484349",
            "0.370552",
            "0.260097"
        ],
        "tchCut": [
            "0.0195419",
            "0.0607911",
            "0.0764495",
            "0.0866669",
            "0.0888486",
            "0.0913054",
            "0.0891174",
            "0.0927523",
            "0.0935447",
            "0.0906393",
            "0.0939638",
            "0.0933113",
            "0.0934133",
            "0.092642",
            "0.0922144",
            "0.0928183",
            "0.0945611",
            "0.096514",
            "0.0907518",
            "0.0802618",
            "0.064615",
            "0.0681054"
        ],
        "schCut": [
            "0.00566535",
            "0.0290023",
            "0.0398845",
            "0.0508911",
            "0.0538144",
            "0.0610885",
            "0.0610884",
            "0.0652627",
            "0.0670994",
            "0.0711332",
            "0.0724145",
            "0.0767683",
            "0.0768937",
            "0.0802495",
            "0.0861875",
            "0.0900108",
            "0.0967745",
            "0.123911",
            "0.132216",
            "0.141817",
            "0.176353",
            "0.228751"
        ]
    },
    "tch": {
        "mass": [
            1,
            5,
            10,
            20,
            30,
            40,
            50,
            60,
            63
        ],
        "bremCut": [
            "0.0074125",
            "0.00856973",
            "0.00721488",
            "0.00777705",
            "0.00727284",
            "0.00748551",
            "0.0081578",
            "0.011584",
            "0.0149554"
        ],
        "tchCut": [
            "0.336657",
            "0.340141",
            "0.336362",
            "0.340631",
            "0.350515",
            "0.368158",
            "0.423683",
            "0.833104",
            "0.841877"
        ],
        "schCut": [
            "0.053455",
            "0.0533581",
            "0.0510978",
            "0.0470647",
            "0.0401666",
            "0.0344092",
            "0.0272899",
            "0.0251708",
            "0.0272053"
        ]
    },
    "sch": {
        "mass": [
            1,
            5,
            10,
            20,
            30,
            40,
            50,
            60,
            63,
            70,
            80,
            90
        ],
        "bremCut": [
            "0.00290771",
            "0.00249545",
            "0.00306884",
            "0.00265583",
            "0.00281659",
            "0.00273639",
            "0.00242472",
            "0.0027556",
            "0.0026774",
            "0.00263587",
            "0.00237389",
            "0.00315051"
        ],
        "tchCut": [
            "0.152267",
            "0.152705",
            "0.151762",
            "0.153646",
            "0.14935",
            "0.151055",
            "0.150856",
            "0.151658",
            "0.151676",
            "0.151733",
            "0.15207",
            "0.153328"
        ],
        "schCut": [
            "0.792768",
            "0.791852",
            "0.792134",
            "0.791014",
            "0.795103",
            "0.793594",
            "0.793939",
            "0.793471",
            "0.792481",
            "0.792461",
            "0.79309",
            "0.790617"
        ]
    }
}